rUsers
…
# most represented customers
samp %>% group_by(cust_num) %>% 
  tally() %>% 
  arrange(desc(n))

## # A tibble: 1,884,698 x 2
##    cust_num     n
##       <int> <int>
##  1       98 56110
##  2      508 11852
##  3    35124 11763
##  4     2270 10909
##  5      931 10061
##  6     2161  8460
##  7      888  8444
##  8      290  8153
##  9     2653  7947
## 10       47  7871
## # ... with 1,884,688 more rows

# most represented items
samp %>% group_by(prod_num) %>% 
  tally() %>% 
  arrange(desc(n))

## # A tibble: 169,113 x 2
##    prod_num     n
##       <int> <int>
##  1      353 45508
##  2       91 38840
##  3       16 36534
##  4      354 36327
##  5      294 36169
##  6       56 33427
##  7      660 32896
##  8      153 29082
##  9      202 27911
## 10      219 27765
## # ... with 169,103 more rows
…
